R for GIS BayGeo, Spring 2024
…
Because the rows represent responses, and the SoQL language doesn’t
have a function like count_distinct(), we’ll have to count up
the records in R.

4. In R, we can now count the number of incidents per
neighborhood:

## Compute the number of incidents per neighborhood
nb_num_calls <- ems_df |> 
  dplyr::group_by(nhood) |> 
  dplyr::summarise(num_calls = n())
nb_num_calls

## # A tibble: 42 × 2
##    nhood                          num_calls
##    <chr>                              <int>
##  1 Bayview Hunters Point                139
##  2 Bernal Heights                        38
##  3 Castro/Upper Market                   78
##  4 Chinatown                             50
##  5 Excelsior                             57
##  6 Financial District/South Beach       263
##  7 Glen Park                             23
##  8 Golden Gate Park                      37
##  9 Haight Ashbury                        40
## 10 Hayes Valley                          56
## # ℹ 32 more rows
…
